per0163262   org50000543
per1001472   org50000543
per1001472   org50000543
per2087142   org50000543
per2136902   org50000543
per5867692   org50000543
per6668172   org50000543
per4887642   org50000543
per3610852   org50000543
per6340072   org50000543
per2208482   org50000543
per3215692   org50000543
per2379992   org50000543
per8222592   org50000543
per9010202   org50000543
per4599972   org50000543
per8650542   org50000543
per3999302   org50000543
per4966892   org50000543
per0453062   org50000543
per9019252   org50000543
per3243162   org50000494
per7938152   org50000494
per8882002   org50000494
per9801702   org50000494
per9730002   org50000494
per8727292   org50000494
per7635252   org50000494
per0782592   org50000494
per7938152   org50000494
per0753262   org50000494
per1954252   org50000494
per9881702   org50000494
per6511002   org50000494
per0719182   org50000494
per0811962   org50000494
per7770002   org50000494
per1177872   org50000494
per1453592   org50000494
per6770472   org50000494
per8931892   org50000494
per1819182   org50000494
per1003042   org50000494
per0606782   org50000494
per3243162   org50000494
per1510002   org50000494
per0590142   org50000494
per4071962   org50000494
per9251442   org50000494
per7001252   org50000494
per4811002   org50000494
per4511002   org50000494
per1270272   org50000494
per0537302   org50000494
per0873182   org50000494
per1932002   org50000494
per6140272   org50000494
per5931472   org50000494
per5880702   org50000494
per3410462   org50000494
per4249082   org50000494
per2791962   org50000494
per4560972   org50000494
per5740182   org50000494
per7329302   org50000494
per6153702   org50000494
per8957152   org50000494
per6994002   org50000494
per4846102   org50000494
per4200462   org50000494
per1454042   org50000499
per1442462   org50000499
per7413042   org50000499
per7502102   org50000499
per0118172   org50000499
per9627192   org50000499
per1454042   org50000499
per1924252   org50000499
per5727772   org50000499
per7413042   org50000499
per7502102   org50000499
per3507482   org50000499
per2114602   org50000499
per0055252   org50000499
per6797602   org50000499
per6438292   org50000499
per7430252   org50000499
per1114442   org50000499
per7278152   org50000499
per1470252   org50000499
per8104292   org50000499
per1442462   org50000499
per5310462   org50000499
per4704252   org50000499
per3105672   org50000570
per7166982   org50000570
per3071182   org50000570
per6325762   org50000570
per6162582   org50000570
per4839962   org50000540
per2356042   org50000540
per7255252   org50000540
per4165252   org50000540
per8206442   org50000540
per1152252   org50000540
per3120562   org50000540
per6609242   org50000540
per1909862   org50000540
per4839962   org50000540
per2368152   org50000540
per1474292   org50000540
per2356042   org50000540
per3970272   org50000540
per8287052   org50000540
per6171282   org50000540
per4967792   org50000540
per4967792   org50413712
per3096572   org50413712
per6879002   org50413712
per0836872   org50413712
per4967792   org50413712
per7266762   org50413712
per3229162   org50413712
per0103452   org50413712
per1119472   org50413712
per2372482   org50413712
per7285262   org50413712
per3096572   org50413712
per6077092   org50413712
per8194252   org50413712
per6239262   org50413712
per2845042   org50413712
per8742582   org50413712
per4583302   org50413712
per5991252   org50413712
per7520182   org50413712
per1278462   org50413712
per7983302   org50413712
per6883082   org50413712
per0034252   org50413712
per0714252   org50000493
per5310462   org50000493
per7732982   org50000493
per0163262   org50000493
per8285262   org50000493
per8492642   org50000493
per7605152   org50000493
per2738272   org50000493
per3273942   org50000493
per8124252   org50000493
per2416042   org50000493
per0714252   org50000493
per8285262   org50000493
per5301082   org50000493
per8492642   org50000493
per0490202   org50000493
per5310462   org50000493
per4784342   org50000493
per7732982   org50000493
per6690242   org50000493
per7492872   org50000493
per2485062   org50000493
per5753262   org50000493
per7605152   org50000493
per2738272   org50000493
per3273942   org50000493
per5991252   org50000493
per0163262   org50000493
per1249982   org50000493
per7802982   org50000493
per6315042   org50000493
per8124252   org50000493
per0040282   org50000493
per7604252   org50000493
per5358162   org50000493
per2416042   org50000493
per3482982   org50000493
per1378982   org50000493
per0118172   org50000493
per6879002   org50000493
per7502102   org50000493
per9082962   org50000493
per2518842   org50000542
per9558252   org50000545
per7280472   org50000545
per7320892   org50000545
per0824252   org50000545
per5270842   org50000545
per3461252   org50000545
per6328162   org50000545
per9558252   org50000545
per0913252   org50000545
per8490862   org50000545
per7280472   org50000545
per9248162   org50000545
per6529062   org50000545
per8614762   org50000545
per2350142   org50000545
per5180962   org50000503
per0034252   org50000503
per4011252   org50000503
per6883082   org50000503
per5180962   org50000503
per0034252   org50000503
per8155252   org50000503
per3588272   org50000503
per4011252   org50000503
per8194252   org50000503
per5701842   org50000503
per5208802   org50000503
per2524042   org50000503
per7263582   org50000503
per7278982   org50000503
per3567372   org50000503
per5541252   org50000503
per5434272   org50000503
per6883082   org50000503
per3050592   org50000503
per5180962   org50000503
per6770442   org50000503
per8546382   org50000503
per0034252   org50000503
per4893042   org50000503
per2656762   org50000503
per8311262   org50000503
per5567042   org50000503
per9182792   org50000503
per8155252   org50000503
per3588272   org50000503
per0852742   org50000503
per0212252   org50000503
per3981062   org50000503
per2251252   org50000503
per3781252   org50000503
per6984182   org50000503
per8545452   org50000503
per7655082   org50000590
per5287902   org50000590
per7955902   org50000508
per3446982   org50000508
per4935252   org50000508
per8355252   org50000508
per0383252   org50000508
per3902252   org50000508
per8600702   org50000508
per8205872   org50000508
per6705202   org50000508
per1635292   org50000508
per7955902   org50000508
per9882842   org50000508
per3446982   org50000508
per4142272   org50000508
per5003042   org50000508
per8317492   org50000508
per3493252   org50000508
per5926742   org50000508
per6970972   org50000508
per9645252   org50000508
per1765982   org50000508
per1433602   org50000508
per5194252   org50000508
per5366172   org50000508
per1054042   org50000508
per8355252   org50000508
per1530472   org50000508
per1572252   org50000508
per9278982   org50000508
per4935252   org50000508
per0674982   org50000506
per9056152   org50000506
per3677962   org50000506
per3677962   org50000506
per9341272   org50000506
per6333152   org50000506
per0674982   org50000506
per6360392   org50000506
per9056152   org50000506
per9056152   org50000506
per1291252   org50000506
per3901862   org50000506
per4783042   org50000506
per2325042   org50000506
per2675492   org50000506
per3677962   org50000506
per4935252   org50000506
per4935252   org50000506
per2968462   org50000506
per6865792   org50000506
per7844462   org50000506
per6333152   org50000506
per6325152   org50000506
per9057762   org50000506
per0674982   org50000506
per3658152   org50000506
per6360392   org50000506
per9056152   org50000506
per8553272   org50000506
per1064252   org50000506
per0050782   org50000506
per1291252   org50000506
per3901862   org50000506
per4783042   org50000506
per3890062   org50000506
per2371252   org50000506
per3493042   org50000506
per2325042   org50000506
per0818002   org50000506
per1461252   org50000506
per7957762   org50000506
per2675492   org50000506
per9667542   org50000506
per3677962   org50000506
per5145252   org50000506
per4935252   org50000506
per6821252   org50000506
per7792252   org50000506
per7649272   org50000506
per2968462   org50000506
per4127042   org50000506
per0205642   org50000506
per0221282   org50000506
per6603042   org50000506
per9341272   org50000506
per1784982   org50000506
per6448542   org50000506
per3874042   org50000506
per6865792   org50000506
per7844462   org50000506
per8704972   org50000506
per0999252   org50000506
per8386182   org50000506
per7514252   org50000506
per2772282   org50000506
per6446152   org50000506
per0040282   org50413714
per8194252   org50000569
per6239262   org50000569
per0593292   org50000569
per0593292   org50000569
per9700302   org50000569
per0811962   org50000569
per3495192   org50000569
per3567372   org50000569
per2377962   org50000569
per4744582   org50000569
per0212252   org50000595
per0782392   org50000595
per7483042   org50000595
per0015172   org50000595
per2157762   org50000595
per0733252   org50000595
per0212252   org50000595
per8648292   org50000554
per0538152   org50000554
per0103452   org50000554
per6446152   org50000554
per3279462   org50000554
per8648292   org50000554
per3325252   org50000554
per8967792   org50000554
per0538152   org50000554
per2772282   org50000554
per8413042   org50000554
per6336042   org50000554
per2251252   org50000554
per6446152   org50000554
per4227042   org50000554
per5406042   org50000554
per4725042   org50000554
per8648292   org50000554
per3325252   org50000554
per8185262   org50000554
per8967792   org50000554
per3482982   org50000554
per0538152   org50000554
per2772282   org50000554
per8413042   org50000554
per6336042   org50000554
per2251252   org50000554
per6446152   org50000554
per7287962   org50000554
per4227042   org50000554
per5406042   org50000554
per4725042   org50000554
per8225152   org50000554
per3279462   org50000554
per3229862   org50000554
per7514252   org50000554
per9057762   org50000554
per6431052   org50000554
per9184292   org50000554
per7957762   org50000554
per0103452   org50000554
per1398862   org50000500
per7045252   org50000500
per7045252   org50000500
per3398592   org50000500
per9989282   org50000500
per9989282   org50000500
per2349182   org50000500
per2349182   org50000500
per8608642   org50000500
per3125582   org50000500
per7603042   org50000500
per7045252   org50000500
per7033642   org50000500
per6746742   org50000500
per6206872   org50000500
per0867092   org50000500
per9690252   org50000500
per3398592   org50000500
per8455042   org50000500
per9989282   org50000500
per9153252   org50000500
per2349182   org50000500
per3867052   org50000500
per2471862   org50000500
per2035902   org50000500
per8608642   org50000500
per1158702   org50000500
per6062252   org50000500
per8455252   org50000500
per4686092   org50000500
per3125582   org50000500
per6434272   org50000500
per7915102   org50000500
per1398862   org50000500
per3453592   org50000500
per7603042   org50000500
per6470152   org50000500
per7055902   org50000500
per4228152   org50000500
per1542962   org50000500
per1311962   org50000500
per1384982   org50000500
per7341342   org50000500
per6358252   org50000500
per6243162   org50000500
per5939272   org50000500
per1351482   org50000500
per2398572   org50000500
per8260702   org50000500
per4012892   org50000500
per1730892   org50000500
per6238472   org50000500
per2590592   org50000500
per0715182   org50000500
per8609252   org50000500
per3920472   org50000500
per8765092   org50000500
per1129862   org50000500
per7265442   org50000500
per1911252   org50000500
per1530472   org50000509
per4334272   org50000509
per5754982   org50000509
per5938152   org50000509
per4744582   org50000509
per3503042   org50000509
per7460942   org50000509
per2604042   org50000509
per2012252   org50000509
per0072252   org50000509
per7228392   org50000509
per8253062   org50000509
per3781252   org50000509
per6333542   org50000509
per2520252   org50000509
per7724042   org50000509
per6754982   org50000509
per7842252   org50000509
per0148162   org50000509
per0799402   org50000509
per5311902   org50000509
per1530472   org50000509
per5694972   org50000509
per3503042   org50000509
per0806302   org50000509
per4334272   org50000509
per2355972   org50000509
per4283002   org50000509
per9852242   org50000509
per1920252   org50000509
per7460942   org50000509
per7468742   org50000509
per9772252   org50000509
per8336582   org50000509
per2845042   org50000509
per0375252   org50000509
per3920252   org50000509
per2604042   org50000509
per5754982   org50000509
per2012252   org50000509
per4434272   org50000509
per2525252   org50000509
per1683182   org50000509
per0072252   org50000509
per3489272   org50000509
per8742582   org50000509
per7228392   org50000509
per0502292   org50000509
per1924582   org50000509
per4925042   org50000509
per7525252   org50000509
per0341742   org50000509
per1891252   org50000509
per5938152   org50000509
per2377962   org50000509
per2398162   org50000509
per8253062   org50000509
per4744582   org50000509
per3781252   org50000509
per6333542   org50000509
per9922642   org50000509
per2520252   org50000509
per7724042   org50000509
per0832472   org50000509
per6754982   org50000509
per5611152   org50000509
per6889152   org50000509
per1158882   org50000509
per7842252   org50000509
per8417042   org50000509
per1454042   org50000509
per1635292   org50000509
per3495192   org50000509
per6151252   org50000509
per4122842   org50000509
per4175642   org50000509
per9174042   org50000509
per5567042   org50000509
per7278152   org50000509
per8155252   org50000509
per1226292   org50000509
per1905582   org50000509
per7266762   org50000509
per7278982   org50000509
per8133252   org50000515
per8017872   org50000515
per1185062   org50000515
per1572252   org50000515
per2626042   org50000515
per5862252   org50000515
per7855252   org50000515
per0513042   org50000515
per1185062   org50000515
per9358272   org50000515
per8119102   org50000515
per1547042   org50000515
per4662862   org50000515
per0767872   org50000515
per0705362   org50000515
per3500462   org50000515
per8133252   org50000515
per0061152   org50000515
per2300682   org50000515
per3565282   org50000515
per1572252   org50000515
per8973252   org50000515
per0883552   org50000515
per2626042   org50000515
per1314042   org50000515
per1264252   org50000515
per6511342   org50000515
per4400252   org50000515
per1214552   org50000515
per7613252   org50000515
per7239252   org50000515
per6813002   org50000515
per5862252   org50000515
per8152342   org50000515
per7788852   org50000515
per6342462   org50000515
per2364252   org50000515
per3792002   org50000515
per8545452   org50000515
per7800292   org50000515
per1471472   org50000515
per3256982   org50000515
per9276062   org50000515
per7182252   org50000515
per3373042   org50000515
per5032252   org50000515
per7436042   org50000515
per0966042   org50000515
per7018592   org50000515
per1285472   org50000515
per2985782   org50000515
per8243002   org50000515
per8017872   org50000515
per3324042   org50000515
per1794042   org50000515
per7662982   org50000515
per6269292   org50000515
per1912842   org50000515
per3365272   org50000515
per5577982   org50000515
per7855252   org50000515
per9259252   org50000515
per0840682   org50000515
per3241252   org50000515
per5313062   org50000516
per0845782   org50000516
per8029862   org50000516
per6224062   org50000516
per9105042   org50000516
per5313062   org50000516
per7365582   org50000516
per2157762   org50000516
per4360392   org50000516
per0845782   org50000516
per8029862   org50000516
per9676292   org50000516
per4554152   org50000516
per6224062   org50000516
per9832282   org50000516
per4704252   org50000516
per9105042   org50000516
per4655252   org50000516
per4355292   org50000516
per5313062   org50000516
per1512182   org50000516
per7365582   org50000516
per4260702   org50000516
per2157762   org50000516
per3742252   org50000516
per4360392   org50000516
per0845782   org50000516
per4104402   org50000516
per8029862   org50000516
per1884792   org50000516
per9989282   org50000516
per3866862   org50000516
per3219842   org50000516
per4822252   org50000516
per1593452   org50000516
per6446152   org50000516
per0285182   org50000516
per2335252   org50000495
per7357292   org50000495
per7357292   org50000495
per5136782   org50000495
per3777092   org50000495
per1691462   org50000495
per4855252   org50000495
per5898152   org50000495
per4857102   org50000495
per2335252   org50000495
per1188962   org50000495
per2178462   org50000495
per6962252   org50000495
per2234102   org50000495
per8519892   org50000495
per3084782   org50000495
per5398472   org50000495
per1011252   org50000495
per3816042   org50000495
per9297042   org50000495
per7357292   org50000495
per4054292   org50000495
per6844042   org50000495
per2883252   org50000495
per7054042   org50000495
per1373762   org50000495
per7358102   org50000495
per6964362   org50000495
per6012252   org50000495
per0503252   org50000495
per5830962   org50000495
per2909162   org50000495
per0844462   org50000495
per4062342   org50000495
per8059762   org50000495
per7907042   org50000495
per7435252   org50000495
per5393762   org50000495
per6846942   org50000495
per3392742   org50000495
per4549682   org50000522
per8278982   org50000522
per5575182   org50000522
per8028162   org50000522
per4077042   org50000522
per3777042   org50000522
per4410252   org50000522
per4404252   org50000522
per3645252   org50000522
per8278982   org50000522
per8842252   org50000522
per5696202   org50000522
per8028162   org50000522
per2856872   org50000522
per4077042   org50000522
per4226082   org50000522
per4104592   org50000522
per5605092   org50000522
per3394202   org50000522
per6051702   org50000522
per4549682   org50000522
per8105472   org50000522
per6992982   org50000522
per3334272   org50000522
per3659742   org50000522
per5418152   org50000522
per1894962   org50000522
per3777042   org50000522
per3813042   org50000522
per5254902   org50000522
per4410252   org50000522
per4822252   org50000522
per0737042   org50000522
per2595272   org50000522
per1428272   org50000522
per3633292   org50000522
per4404252   org50000522
per1035252   org50000522
per8969602   org50000522
per5091242   org50000522
per4929892   org50000522
per7557772   org50000522
per8396092   org50000522
per3645252   org50000522
per8278982   org50000522
per8842252   org50000522
per0755042   org50000522
per8563402   org50000522
per5575182   org50000522
per4853402   org50000522
per2679682   org50000522
per4833162   org50000522
per9615902   org50000522
per5455662   org50000522
per5696202   org50000522
per6725252   org50000522
per8028162   org50000522
per6763252   org50000522
per7671252   org50000522
per4902252   org50000522
per7023862   org50000522
per9136082   org50000522
per2856872   org50000522
per5267972   org50000522
per5394202   org50000522
per2645902   org50000522
per5778162   org50000522
per7382252   org50000522
per9928002   org50000522
per8092472   org50000522
per7171292   org50000522
per3249682   org50000522
per4556082   org50000522
per8310462   org50000522
per3777042   org50000522
per5125942   org50000522
per7278462   org50000522
per8987962   org50000522
per6976762   org50000522
per9330252   org50000522
per7644042   org50000522
per8367142   org50000522
per2918582   org50000522
per9278982   org50000528
per1378982   org50000528
per2591702   org50000528
per5905042   org50000528
per0596862   org50000528
per5244042   org50000528
per5237042   org50000528
per6164042   org50000528
per4601252   org50000528
per2591702   org50000528
per5905042   org50000528
per8667872   org50000528
per3495192   org50000528
per6151252   org50000528
per0596862   org50000528
per4151292   org50000528
per2664292   org50000528
per3456042   org50000528
per5244042   org50000528
per9278982   org50000528
per5237042   org50000528
per6164042   org50000528
per1378982   org50000528
per0410462   org50000528
per3042252   org50000528
per4200462   org50000528
per7170862   org50000528
per9716362   org50000528
per6333152   org50000528
per9056152   org50000528
per2604042   org50000528
per8225152   org50000528
per2394482   org50000528
per0212252   org50000530
per0212252   org50000530
per0212252   org50000530
per6410252   org50000530
per7575262   org50000530
per3403042   org50000530
per5882002   org50000530
per7975182   org50000530
per6457152   org50000530
per1226292   org50000530
per5678152   org50000530
per2604042   org50000530
per0341742   org50000530
per6448542   org50000530
per2011252   org50000530
per6048162   org50000512
per9710472   org50000512
per7526492   org50000512
per6244042   org50000512
per2544972   org50000512
per6358252   org50000512
per7597592   org50000512
per7526492   org50000512
per4316342   org50000512
per8289002   org50000512
per2643262   org50000512
per2643262   org50000512
per1552252   org50000512
per4080252   org50000512
per8977902   org50000512
per5015192   org50000512
per9413042   org50000512
per5577902   org50000512
per6048162   org50000512
per6976172   org50000512
per2570702   org50000512
per6320252   org50000512
per9976172   org50000512
per9057302   org50000512
per3252842   org50000512
per5819102   org50000512
per3513642   org50000512
per2648102   org50000512
per9710472   org50000512
per2119472   org50000512
per6358252   org50000512
per9751002   org50000512
per4799702   org50000512
per7597592   org50000512
per4799192   org50000512
per7526492   org50000512
per8481702   org50000512
per5294392   org50000512
per7417092   org50000512
per0358102   org50000512
per5871252   org50000512
per5468152   org50000512
per7636782   org50000512
per3120152   org50000512
per3400252   org50000512
per7801252   org50000512
per4316342   org50000512
per2540942   org50000512
per8289002   org50000512
per9129402   org50000512
per0759402   org50000512
per2496092   org50000512
per0715182   org50000512
per2685062   org50000512
per3453082   org50000512
per4388082   org50000512
per6230252   org50000512
per6702502   org50000512
per5248002   org50000512
per9715182   org50000512
per0602082   org50000512
per2342252   org50000512
per2643262   org50000512
per8788402   org50000512
per1552252   org50000512
per1527902   org50000512
per6244042   org50000512
per4080252   org50000512
per5084252   org50000512
per2544972   org50000512
per9948152   org50000512
per9873252   org50000512
per1904442   org50000512
per4821252   org50000512
per8977902   org50000512
per9528152   org50000512
per4988802   org50000512
per7395042   org50000512
per4343162   org50000512
per1768002   org50000512
per1375042   org50000512
per3599702   org50000512
per1289462   org50000512
per2945862   org50000512
per9248162   org50000512
per3398592   org50000512
per0165482   org50000512
per2489272   org50000504
per2489272   org50000504
per2489272   org50000504
per2999472   org50000504
per1200462   org50000504
per8277042   org50000504
per2868462   org50000504
per0166052   org50000504
per0166052   org50000504
per0166052   org50000504
per0086762   org50000504
per1875262   org50000504
per6045152   org50000504
per5592582   org50000504
per9684252   org50000504
per8953582   org50000504
per2918582   org50000504
per2868462   org50000504
per5759982   org50000504
per9823152   org50000504
per3862252   org50000504
per4592582   org50000504
per6453252   org50000504
per3175182   org50000504
per7766792   org50000504
per1100462   org50000504
per1375182   org50000504
per2489272   org50000504
per8743372   org50000504
per1875262   org50000504
per3100192   org50000504
per2999472   org50000504
per3816142   org50000504
per7438982   org50000504
per9387602   org50000504
per9228162   org50000504
per6778252   org50000504
per2102302   org50000504
per0015182   org50000504
per5266792   org50000504
per4575152   org50000504
per4168442   org50000504
per1200462   org50000504
per1629502   org50000504
per6045152   org50000504
per9667042   org50000504
per9383252   org50000504
per6573742   org50000504
per0285182   org50000504
per5592582   org50000504
per9995272   org50000504
per6069002   org50000504
per9684252   org50000504
per3278972   org50000504
per8277042   org50000504
per8953582   org50000504
per2918582   org50000504
per9939002   org50000504
per1375262   org50000504
per0057302   org50000504
per4183292   org50000504
per9352792   org50000504
per5333792   org50000504
per0919882   org50000504
per5880592   org50000504
per8311702   org50000504
per4147042   org50000504
per7434662   org50000504
per2868462   org50000504
per4463292   org50000504
per7364042   org50000504
per0166052   org50000504
per7921192   org50000504
per5759982   org50000504
per9628982   org50000504
per3500302   org50000504
per0519102   org50000504
per9823152   org50000504
per9070502   org50000504
per3862252   org50000504
per0086762   org50000504
per4592582   org50000504
per1999472   org50000504
per7784452   org50000504
per9334042   org50000504
per3725042   org50000504
per6453252   org50000504
per9166302   org50000504
per6367042   org50000504
per0081002   org50000504
per9365792   org50000504
per1029862   org50000504
per3639102   org50000504
per1884792   org50000504
per5730252   org50000504
per2103642   org50000504
per9738152   org50000504
per6920472   org50000504
per8320252   org50000504
per7684062   org50000504
per2625042   org50000504
per9989282   org50000504
per9244152   org50000504
per1826042   org50000504
per1278462   org50000504
per0945582   org50000504
per9143602   org50000504
per7585042   org50000504
per6202252   org50000504
per2013042   org50000504
per6204762   org50000504
per8173542   org50000504
per4051292   org50000504
per8028162   org50000504
per1676282   org50000504
per7951252   org50000504
per2994382   org50000504
per1452792   org50000504
per8780182   org50000504
per8605602   org50000504
per0752602   org50000504
per4861962   org50000504
per1787042   org50000504
per2426962   org50000504
per2002982   org50000504
per2156782   org50000529
per1905582   org50000529
per9082962   org50000529
per6077092   org50000529
per4179592   org50000529
per7672002   org50000529
per8202292   org50000529
per9649152   org50000529
per8672002   org50000529
per2271702   org50000529
per1404552   org50000529
per7494982   org50000529
per9842292   org50000529
per1881962   org50000529
per6385982   org50000529
per6431052   org50000529
per2588152   org50000529
per1905582   org50000529
per4105872   org50000529
per9079592   org50000529
per0015172   org50000529
per6317052   org50000529
per6871252   org50000529
per6683052   org50000529
per7031382   org50000529
per9082962   org50000529
per2202292   org50000529
per4583182   org50000529
per8415952   org50000529
per0624042   org50000529
per1760402   org50000529
per2155982   org50000529
per9269592   org50000529
per9373042   org50000529
per8875252   org50000529
per0443262   org50000529
per0666182   org50000529
per5075062   org50000529
per9479102   org50000529
per3635152   org50000529
per0545042   org50000529
per2270862   org50000529
per2648592   org50000529
per5494982   org50000529
per7929862   org50000529
per5842292   org50000529
per0879592   org50000529
per2156782   org50000529
per8904492   org50000529
per8369592   org50000529
per3801252   org50000529
per1646252   org50000529
per0479462   org50000529
per8718152   org50000529
per1594982   org50000529
per0733252   org50000529
per8746172   org50000529
per2797602   org50000529
per4265062   org50000529
per9479002   org50000529
per8138042   org50000529
per3982682   org50000529
per3325252   org50000529
per8185262   org50000529
per0538152   org50000529
per8413042   org50000529
per2251252   org50000529
per6446152   org50000529
per3279462   org50000529
per9544252   org50000531
per8386182   org50000531
per0486042   org50000531
per3780292   org50000531
per3183142   org50000531
per4341702   org50000531
per9034152   org50000531
per1560902   org50000531
per8173272   org50000531
per2772972   org50000531
per2011252   org50000531
per1504552   org50000531
per9524252   org50000531
per6126562   org50000531
per9544252   org50000531
per2710392   org50000531
per4967792   org50000531
per6446152   org50000531
per7792252   org50000531
per4127042   org50000531
per8124252   org50000531
per9056152   org50000531
per5938152   org50000602
per3483902   org50000602
per3857792   org50000602
per6057762   org50000602
per7525602   org50000602
per6106302   org50000602
per9986792   org50000602
per7113702   org50000602
per6525602   org50000602
per2321402   org50000602
per8269392   org50000602
per1595982   org50000602
per6397892   org50000602
per8367762   org50000602
per1636092   org50000602
per8354602   org50000602
per1884482   org50000602
per7969662   org50000602
per0470702   org50000602
per2111302   org50000602
per3651392   org50000602
per3981062   org50000602
per7167192   org50000602
per3136982   org50000602
per2735982   org50000602
per7926052   org50000602
per1563862   org50000602
per0673902   org50000602
per2180402   org50000602
per8825082   org50000602
per3241292   org50000602
per5425602   org50000602
per1040702   org50000602
per7070472   org50000602
per7783902   org50000602
per3483902   org50000602
per1254602   org50000602
per3857792   org50000602
per2636092   org50000602
per2887762   org50000602
per6071002   org50000602
per6487072   org50000602
per5732302   org50000602
per8700102   org50000602
per2709782   org50000602
per4732302   org50000602
per7844462   org50000562
per9184292   org50000562
per9050002   org50000562
per9184292   org50000562
per2706492   org50000562
per5811292   org50000562
per8808892   org50000562
per0986642   org50000562
per8545062   org50000562
per6984182   org50000562
per0011162   org50000517
per3729862   org50000517
per7434272   org50000517
per9222872   org50000517
per2389002   org50000517
per9697242   org50000517
per0585062   org50000517
per1573042   org50000517
per1573042   org50000517
per3652252   org50000517
per4729802   org50000517
per8008362   org50000517
per9129862   org50000517
per0393042   org50000517
per2484252   org50000517
per7434272   org50000517
per2664042   org50000517
per6436862   org50000517
per7525152   org50000517
per4342462   org50000517
per7778402   org50000517
per2389002   org50000517
per0011162   org50000517
per9697242   org50000517
per1317142   org50000517
per2379162   org50000517
per6528272   org50000517
per2793362   org50000517
per4612252   org50000517
per3729862   org50000517
per0585062   org50000517
per1573042   org50000517
per3652252   org50000517
per2210642   org50000517
per5962252   org50000517
per4729802   org50000517
per1905742   org50000517
per8008362   org50000517
per9129862   org50000517
per0165482   org50000517
per0126962   org50000517
per0393042   org50000517
per2484252   org50000517
per6032202   org50000517
per0907042   org50000517
per9896042   org50000517
per9248162   org50000517
per2175042   org50000517
per7206172   org50000517
per7434272   org50000517
per1128152   org50000517
per3904252   org50000517
per3125252   org50000517
per2664042   org50000517
per8489152   org50000517
per1702272   org50000517
per6596042   org50000517
per6491842   org50000517
per6048162   org50000517
per9535242   org50000517
per2119472   org50000517
per3894292   org50000517
per3754982   org50000517
per8970272   org50000517
per0259252   org50000517
per0711472   org50000517
per0867842   org50000517
per6238472   org50000517
per2496092   org50000517
per4231252   org50000517
per2643262   org50000517
per6369762   org50000517
per3370472   org50000517
per9118252   org50000517
per4478102   org50000517
per0482792   org50413713
per4233252   org50413713
per9724252   org50413713
per9724252   org50413713
per8511292   org50413713
per4621952   org50413713
per2945862   org50413713
per9914062   org50413713
per5285142   org50413713
per3624042   org50413713
per3622942   org50413713
per4621952   org50413713
per0482792   org50413713
per4233252   org50413713
per2945862   org50413713
per9914062   org50413713
per4012892   org50413713
per6444452   org50413713
per5046172   org50413713
per9406982   org50413713
per3142002   org50413713
per9482792   org50413713
per7832702   org50413713
per3920472   org50413713
per5285142   org50413713
per9944892   org50413713
per1129862   org50413713
per9724252   org50413713
per9724252   org50413713
per9820902   org50413713
per8511292   org50413713
per7249902   org50413713
per3624042   org50413713
per1814252   org50413713
per5063472   org50413713
per8608642   org50413713
per4388082   org50413713
per4387302   org50413713
per1603092   org50719993
per4931692   org50719993
per7333242   org50719993
per7763252   org50719993
per8725042   org50719993
per0208182   org50719993
per2408162   org50719993
per1603092   org50719993
per3276062   org50719993
per8651252   org50719993
per1729802   org50719993
per0105872   org50719993
per6239262   org50719993
per2394482   org50719993
per0025252   org50719993
per9396842   org50719993
per2170252   org50719993
per8202272   org50719993
per7983302   org50719993
per7844982   org50719993
per0236872   org50719993
per7333242   org50719993
per7763252   org50719993
per8725042   org50719993
per1653252   org50719993
per4376062   org50719993
per3779962   org50719993
per0208182   org50719993
per2408162   org50719993
per9035252   org50719993
per3818982   org50719993
per4438172   org50719993
per1603092   org50719993
per6249142   org50719993
per3612252   org50719993
per9665042   org50719993
per3276062   org50719993
per2544252   org50719993
per1191682   org50719993
per4062302   org50719993
per6715042   org50719993
per7210462   org50719993
per5617602   org50719993
per6011002   org50719993
per4931692   org50719993
per0375152   org50719993
per9361602   org50719993
per8194252   org50719993
per1826042   org50719993
per0836872   org50719993
per1881872   org50719993
per0945582   org50719993
per6808062   org50719993
per5701252   org50719993
per2706492   org50719993
per6115172   org50719993
per2855252   org50719993
per1526982   org50719993
per6770442   org50719993
per8223872   org50719993
per4008362   org50719993
per8792342   org50000498
per5528272   org50000498
per5923872   org50000498
per1503042   org50000498
per6924042   org50000498
per9535242   org50000498
per8792342   org50000498
per8792342   org50000498
per4501252   org50000498
per4501252   org50000498
per5528272   org50000498
per6278462   org50000498
per6278462   org50000498
per9037042   org50000498
per8214782   org50000498
per1503042   org50000498
per9222872   org50000498
per9118252   org50000498
per6924042   org50000498
per7040252   org50000498
per9535242   org50000498
per0111082   org50000498
per3754982   org50000498
per4521252   org50000498
per8792342   org50000498
per4501252   org50000498
per9091272   org50000498
per3278402   org50000498
per2905872   org50000498
per4243162   org50000498
per5528272   org50000498
per0557462   org50000498
per7244252   org50000498
per5923872   org50000498
per4281062   org50000498
per6278462   org50000498
per0027872   org50000498
per0952252   org50000498
per5859202   org50000498
per4340182   org50000498
per0871252   org50000498
per5132102   org50000498
per2973252   org50000498
per8170202   org50000498
per9743702   org50000498
per8614762   org50000498
per9037042   org50000498
per9946092   org50000498
per8214782   org50000498
per1503042   org50000498
per0303592   org50000498
per6900792   org50000498
per9222872   org50000498
per1269902   org50000498
per9976052   org50000498
per9109192   org50000498
per1484042   org50000498
per9118252   org50000498
per8149892   org50000498
per2699302   org50000498
per7484252   org50000498
per8970272   org50000498
per2349182   org50000498
per8992292   org50000498
per3314042   org50000498
per2496092   org50000498
per1372302   org50000498
per5765402   org50000498
per5841992   org50000498
per6712792   org50000498
per9786762   org50000498
per4970962   org50000498
per5933972   org50000498
per0511442   org50000496
per3776042   org50000496
per6918742   org50000496
per5238472   org50000496
per6529062   org50000496
per2909162   org50000496
per3863062   org50000496
per0781252   org50000496
per3375042   org50000496
per3945042   org50000496
per3776042   org50000496
per0577042   org50000496
per5278472   org50000496
per9890252   org50000496
per0951252   org50000496
per5238472   org50000496
per1004042   org50000496
per9081242   org50000496
per7375042   org50000496
per6727042   org50000496
per2909162   org50000496
per7454742   org50000496
per5278982   org50000496
per9698862   org50000496
per3863062   org50000496
per4572962   org50000496
per4958392   org50000496
per8334662   org50000496
per3894292   org50000496
per7139962   org50000496
per1966382   org50000496
per1970252   org50000496
per8495282   org50000496
per0781252   org50000496
per6278982   org50000496
per4290152   org50000496
per6531252   org50000496
per3375042   org50000496
per0511442   org50000496
per1998172   org50000496
per7968442   org50000496
per5182962   org50000496
per1554182   org50000496
per9836042   org50000496
per0735252   org50000496
per5427282   org50000496
per8162192   org50000496
per1892202   org50000496
per3945042   org50000496
per8221842   org50000496
per0692272   org50000496
per3776042   org50000496
per0577042   org50000496
per1593452   org50000496
per4231252   org50000496
per5278472   org50000496
per6914042   org50000496
per6918742   org50000496
per6160702   org50000496
per9890252   org50000496
per0951252   org50000496
per1810872   org50000496
per5238472   org50000496
per1004042   org50000496
per0467792   org50000496
per7445042   org50000496
per0698862   org50000496
per1276252   org50000496
per4257842   org50000496
per9081242   org50000496
per4257942   org50000496
per6529062   org50000496
per9681392   org50000496
per7907042   org50000496
per3410292   org50000496
per7114252   org50000496
per8584452   org50000496
per1001252   org50000496
per6065252   org50000496
per0674362   org50000496
per3993252   org50000496
per7435252   org50000496
per2118172   org50000496
per2506742   org50000496
per2237042   org50000496
per5165252   org50000496
per7307902   org50000496
per6844292   org50000496
per6794042   org50000496
per7375042   org50000496
per4904292   org50000496
per6727042   org50000496
per7901152   org50000496
per2666762   org50000496
per9703252   org50000496
per6846942   org50000496
per9170272   org50000496
per3392742   org50000496
per4554152   org50000496
per2051062   org50000496
per8608642   org50000496
per3889292   org50000496
per7725252   org50000496
per7422252   org50000496
per6830172   org50000496
per6964362   org50000496
per2767772   org50000496
per4818452   org50000496
per3863062   org50000496
per9653742   org50000523
per6339162   org50000523
per1293252   org50000523
per0078182   org50000523
per2350272   org50000523
per7259962   org50000523
per2702282   org50000523
per6053052   org50000523
per6150182   org50000523
per8548272   org50000523
per8670252   org50000523
per1293252   org50000523
per0078182   org50000523
per5150182   org50000523
per3124042   org50000523
per8039152   org50000523
per0862162   org50000523
per5643252   org50000523
per7901702   org50000523
per6053052   org50000523
per5753582   org50000523
per0844462   org50000523
per1592862   org50000523
per6150182   org50000523
per8944252   org50000523
per8548272   org50000523
per5225042   org50000523
per7483042   org50000523
per3975042   org50000523
per7633292   org50000523
per1124042   org50000523
per6146442   org50000523
per5693452   org50000523
per1388962   org50000523
per1919742   org50000523
per2240072   org50000523
per8670252   org50000523
per8353252   org50000523
per3160082   org50000523
per6339162   org50000523
per1293252   org50000523
per0978462   org50000523
per0078182   org50000523
per9734042   org50000523
per2350272   org50000523
per8095042   org50000523
per4777042   org50000523
per6192872   org50000523
per5150182   org50000523
per7259962   org50000523
per2467382   org50000523
per3645042   org50000523
per7364642   org50000523
per9679272   org50000523
per0253272   org50000523
per0926042   org50000523
per3124042   org50000523
per7860472   org50000523
per2702282   org50000523
per8039152   org50000523
per3518862   org50000523
per2257042   org50000523
per3688002   org50000523
per3081962   org50000523
per8004042   org50000523
per8834742   org50000523
per7520182   org50000523
per0475982   org50000523
per5024042   org50000523
per0338152   org50000523
per2579882   org50000523
per4577772   org50000523
per2314042   org50000523
per9715042   org50000523
per6820202   org50000523
per7934172   org50000523
per8187042   org50000523
per5074242   org50000523
per4177302   org50000523
per8063062   org50000523
per9907842   org50000523
per4654352   org50000523
per3364042   org50000523
per4756042   org50000523
per8324172   org50000523
per2065492   org50000523
per4268972   org50000523
per3881482   org50000523
per9396842   org50000523
per6808062   org50000523
per5701252   org50000523
per1524252   org50000523
per6434442   org50000523
per9965492   org50000523
per7827042   org50000523
per8566442   org50000523
per2501862   org50000523
per3257042   org50000523
per6754842   org50000523
per1448642   org50000523
per4133592   org50000523
per8725252   org50000523
per0950102   org50000523
per8602262   org50000523
per9437042   org50000523
per1004042   org50000523
per3442402   org50000523
per9896042   org50000523
per4765252   org50000523
per8059762   org50000523
per2737042   org50000523
per1769962   org50000523
per8511252   org50000523
per9837152   org50000523
per6925042   org50000523
per3276062   org50000523
per2544252   org50000523
per9271742   org50000523
per5881252   org50000523
per7180462   org50000523
per9010252   org50000523
per3175142   org50000523
per9242462   org50000523
per9653742   org50000523
per3805262   org50000523
per3224042   org50000523
per5196172   org50000523
per8208152   org50000523
per9577362   org50000523
